# 3ds Max Wavefront OBJ Exporter v0.97b - (c)2007 guruware
# 创建的文件:06.06.2015 18:17:22
#
# object _null_
#
v  4.5315 5.2235 -0.0798
v  4.3990 5.2640 1.1075
v  4.3506 5.4725 1.0869
v  4.4814 5.4325 -0.0847
v  4.3581 5.5980 1.0864
v  4.4892 5.5579 -0.0876
v  4.4071 5.6404 1.1014
v  4.5399 5.5998 -0.0886
v  4.4831 5.5994 1.1272
v  4.6187 5.5579 -0.0876
v  4.5717 5.4750 1.1591
v  4.7105 5.4325 -0.0847
v  4.6585 5.2669 1.1923
v  4.8005 5.2235 -0.0798
v  4.0238 5.3002 2.1671
v  3.9804 5.5082 2.1323
v  3.9871 5.6338 2.1341
v  4.0310 5.6766 2.1634
v  4.0992 5.6364 2.2113
v  4.1787 5.5129 2.2690
v  4.2565 5.3057 2.3276
v  3.4393 5.3307 3.0596
v  3.4037 5.5383 3.0130
v  3.4093 5.6639 3.0166
v  3.4453 5.7071 3.0579
v  3.5012 5.6676 3.1245
v  3.5664 5.5448 3.2040
v  3.6303 5.3383 3.2839
v  2.6791 5.3541 3.7458
v  2.6536 5.5614 3.6900
v  2.6576 5.6871 3.6950
v  2.6834 5.7306 3.7456
v  2.7234 5.6916 3.8266
v  2.7701 5.5693 3.9228
v  2.8158 5.3634 4.0191
v  1.7766 5.3691 4.1864
v  1.7632 5.5762 4.1247
v  1.7652 5.7019 4.1306
v  1.7789 5.7457 4.1871
v  1.8000 5.7069 4.2773
v  1.8247 5.5851 4.3843
v  1.8489 5.3795 4.4911
v  0.7653 5.3744 4.3420
v  0.7653 5.5815 4.2782
v  0.7653 5.7072 4.2844
v  0.7653 5.7510 4.3431
v  0.7653 5.7124 4.4365
v  0.7653 5.5906 4.5473
v  0.7653 5.3852 4.6578
v  -0.3300 5.3691 4.1864
v  -0.2811 5.5762 4.1247
v  -0.2595 5.7019 4.1306
v  -0.2587 5.7457 4.1871
v  -0.2725 5.7069 4.2773
v  -0.2944 5.5851 4.3843
v  -0.3182 5.3795 4.4911
v  -1.2560 5.3541 3.7458
v  -1.1852 5.5614 3.6900
v  -1.1588 5.6871 3.6950
v  -1.1662 5.7306 3.7456
v  -1.1967 5.6916 3.8266
v  -1.2399 5.5693 3.9228
v  -1.2851 5.3634 4.0191
v  -1.9994 5.3307 3.0596
v  -1.9256 5.5383 3.0130
v  -1.9055 5.6639 3.0166
v  -1.9260 5.7071 3.0579
v  -1.9739 5.6676 3.1245
v  -2.0362 5.5448 3.2040
v  -2.0996 5.3383 3.2839
v  -2.5469 5.3002 2.1671
v  -2.4809 5.5082 2.1323
v  -2.4724 5.6338 2.1341
v  -2.5071 5.6766 2.1634
v  -2.5705 5.6364 2.2113
v  -2.6482 5.5129 2.2690
v  -2.7259 5.3057 2.3276
v  -2.8851 5.2640 1.1075
v  -2.8297 5.4725 1.0869
v  -2.8325 5.5980 1.0864
v  -2.8785 5.6404 1.1014
v  -2.9531 5.5994 1.1272
v  -3.0411 5.4750 1.1591
v  -3.1279 5.2669 1.1923
v  -3.0008 5.2235 -0.0798
v  -2.9507 5.4325 -0.0847
v  -2.9585 5.5579 -0.0876
v  -3.0092 5.5998 -0.0886
v  -3.0880 5.5579 -0.0876
v  -3.1799 5.4325 -0.0847
v  -3.2699 5.2235 -0.0798
v  -2.8683 5.1830 -1.2671
v  -2.8200 5.3925 -1.2562
v  -2.8275 5.5179 -1.2616
v  -2.8764 5.5591 -1.2785
v  -2.9524 5.5165 -1.3024
v  -3.0411 5.3901 -1.3284
v  -3.1279 5.1801 -1.3519
v  -2.4931 5.1468 -2.3267
v  -2.4497 5.3569 -2.3017
v  -2.4565 5.4821 -2.3092
v  -2.5004 5.5229 -2.3405
v  -2.5685 5.4795 -2.3865
v  -2.6480 5.3522 -2.4384
v  -2.7259 5.1413 -2.4872
v  -1.9087 5.1164 -3.2192
v  -1.8731 5.3268 -3.1823
v  -1.8786 5.4520 -3.1917
v  -1.9146 5.4924 -3.2350
v  -1.9705 5.4483 -3.2997
v  -2.0358 5.3203 -3.3733
v  -2.0996 5.1087 -3.4435
v  -1.1484 5.0929 -3.9054
v  -1.1230 5.3037 -3.8594
v  -1.1269 5.4288 -3.8702
v  -1.1527 5.4689 -3.9227
v  -1.1927 5.4243 -4.0018
v  -1.2394 5.2957 -4.0921
v  -1.2851 5.0836 -4.1787
v  -0.2460 5.0779 -4.3460
v  -0.2325 5.2889 -4.2940
v  -0.2346 5.4140 -4.3058
v  -0.2482 5.4538 -4.3642
v  -0.2694 5.4090 -4.4525
v  -0.2940 5.2800 -4.5536
v  -0.3182 5.0675 -4.6507
v  0.7653 5.0726 -4.5015
v  0.7653 5.2836 -4.4475
v  0.7653 5.4087 -4.4596
v  0.7653 5.4485 -4.5202
v  0.7653 5.4035 -4.6117
v  0.7653 5.2744 -4.7166
v  0.7653 5.0618 -4.8174
v  1.7766 5.0779 -4.3460
v  1.7632 5.2889 -4.2940
v  1.7652 5.4140 -4.3058
v  1.7789 5.4538 -4.3642
v  1.8000 5.4090 -4.4525
v  1.8247 5.2800 -4.5536
v  1.8489 5.0675 -4.6507
v  2.6791 5.0929 -3.9054
v  2.6536 5.3037 -3.8594
v  2.6576 5.4288 -3.8702
v  2.6834 5.4689 -3.9227
v  2.7234 5.4243 -4.0018
v  2.7701 5.2957 -4.0921
v  2.8158 5.0836 -4.1787
v  3.4393 5.1164 -3.2192
v  3.4037 5.3268 -3.1823
v  3.4093 5.4520 -3.1917
v  3.4453 5.4924 -3.2350
v  3.5012 5.4483 -3.2997
v  3.5664 5.3203 -3.3733
v  3.6303 5.1087 -3.4435
v  4.0238 5.1468 -2.3267
v  3.9804 5.3569 -2.3017
v  3.9871 5.4821 -2.3092
v  4.0310 5.5229 -2.3405
v  4.0992 5.4795 -2.3865
v  4.1787 5.3522 -2.4384
v  4.2565 5.1413 -2.4872
v  4.3990 5.1830 -1.2671
v  4.3506 5.3925 -1.2562
v  4.3581 5.5179 -1.2616
v  4.4071 5.5591 -1.2785
v  4.4831 5.5165 -1.3024
v  4.5717 5.3901 -1.3284
v  4.6585 5.1801 -1.3519
v  4.9800 4.2686 1.3207
v  5.1337 4.2216 -0.0564
v  5.2834 3.2779 1.4430
v  5.4481 3.2276 -0.0333
v  5.5507 2.3028 1.5532
v  5.7252 2.2495 -0.0105
v  5.7640 1.3510 1.6451
v  5.9463 1.2953 0.0118
v  5.9052 0.4303 1.7128
v  6.0926 0.3729 0.0333
v  5.9563 -0.4517 1.7500
v  6.1456 -0.5096 0.0538
v  4.5448 4.3105 2.5497
v  4.8168 3.3229 2.7605
v  5.0566 2.3505 2.9486
v  5.2478 1.4008 3.1027
v  5.3744 0.4814 3.2115
v  5.4202 -0.4000 3.2637
v  3.8669 4.3458 3.5850
v  4.0901 3.3608 3.8703
v  4.2869 2.3906 4.1241
v  4.4438 1.4427 4.3306
v  4.5477 0.5245 4.4741
v  4.5853 -0.3565 4.5388
v  2.9851 4.3730 4.3809
v  3.1449 3.3899 4.7235
v  3.2857 2.4214 5.0277
v  3.3980 1.4749 5.2745
v  3.4724 0.5577 5.4447
v  3.4993 -0.3230 5.5190
v  1.9383 4.3905 4.8918
v  2.0228 3.4086 5.2712
v  2.0972 2.4412 5.6079
v  2.1565 1.4956 5.8806
v  2.1958 0.5789 6.0678
v  2.2100 -0.3015 6.1484
v  0.7653 4.3966 5.0723
v  0.7653 3.4152 5.4647
v  0.7653 2.4482 5.8128
v  0.7653 1.5029 6.0946
v  0.7653 0.5864 6.2879
v  0.7653 -0.2940 6.3706
v  -0.4076 4.3905 4.8918
v  -0.4921 3.4086 5.2712
v  -0.5665 2.4412 5.6079
v  -0.6259 1.4956 5.8806
v  -0.6652 0.5789 6.0678
v  -0.6794 -0.3015 6.1484
v  -1.4544 4.3730 4.3809
v  -1.6142 3.3899 4.7235
v  -1.7550 2.4214 5.0277
v  -1.8674 1.4749 5.2745
v  -1.9417 0.5577 5.4447
v  -1.9686 -0.3230 5.5190
v  -2.3362 4.3458 3.5850
v  -2.5595 3.3608 3.8703
v  -2.7562 2.3906 4.1241
v  -2.9132 1.4427 4.3306
v  -3.0171 0.5245 4.4741
v  -3.0546 -0.3565 4.5388
v  -3.0141 4.3105 2.5497
v  -3.2862 3.3229 2.7605
v  -3.5259 2.3505 2.9486
v  -3.7172 1.4008 3.1027
v  -3.8438 0.4814 3.2115
v  -3.8896 -0.4000 3.2637
v  -3.4493 4.2686 1.3207
v  -3.7527 3.2779 1.4430
v  -4.0201 2.3028 1.5532
v  -4.2334 1.3510 1.6451
v  -4.3745 0.4303 1.7128
v  -4.4256 -0.4517 1.7500
v  -3.6030 4.2216 -0.0564
v  -3.9175 3.2276 -0.0333
v  -4.1946 2.2495 -0.0105
v  -4.4156 1.2953 0.0118
v  -4.5620 0.3729 0.0333
v  -4.6149 -0.5096 0.0538
v  -3.4493 4.1745 -1.4336
v  -3.7527 3.1772 -1.5096
v  -4.0201 2.1961 -1.5741
v  -4.2334 1.2395 -1.6216
v  -4.3745 0.3156 -1.6462
v  -4.4256 -0.5675 -1.6423
v  -3.0141 4.1326 -2.6626
v  -3.2862 3.1322 -2.8270
v  -3.5259 2.1485 -2.9696
v  -3.7172 1.1898 -3.0792
v  -3.8438 0.2645 -3.1450
v  -3.8896 -0.6191 -3.1560
v  -2.3362 4.0973 -3.6978
v  -2.5595 3.0943 -3.9368
v  -2.7562 2.1083 -4.1450
v  -2.9132 1.1479 -4.3070
v  -3.0171 0.2214 -4.4075
v  -3.0546 -0.6627 -4.4311
v  -1.4544 4.0701 -4.4937
v  -1.6142 3.0652 -4.7900
v  -1.7550 2.0775 -5.0487
v  -1.8674 1.1157 -5.2510
v  -1.9417 0.1882 -5.3781
v  -1.9686 -0.6961 -5.4113
v  -0.4076 4.0527 -5.0047
v  -0.4921 3.0465 -5.3378
v  -0.5665 2.0577 -5.6289
v  -0.6259 1.0950 -5.8570
v  -0.6651 0.1670 -6.0013
v  -0.6794 -0.7176 -6.0407
v  0.7653 4.0465 -5.1852
v  0.7653 3.0399 -5.5312
v  0.7653 2.0507 -5.8337
v  0.7653 1.0877 -6.0710
v  0.7653 0.1595 -6.2214
v  0.7653 -0.7252 -6.2629
v  1.9383 4.0527 -5.0047
v  2.0228 3.0465 -5.3378
v  2.0972 2.0577 -5.6289
v  2.1565 1.0950 -5.8570
v  2.1958 0.1670 -6.0013
v  2.2100 -0.7176 -6.0407
v  2.9851 4.0701 -4.4937
v  3.1449 3.0652 -4.7900
v  3.2857 2.0775 -5.0487
v  3.3980 1.1157 -5.2510
v  3.4724 0.1882 -5.3781
v  3.4993 -0.6961 -5.4113
v  3.8669 4.0973 -3.6978
v  4.0901 3.0943 -3.9368
v  4.2869 2.1083 -4.1450
v  4.4438 1.1479 -4.3070
v  4.5477 0.2214 -4.4075
v  4.5853 -0.6627 -4.4311
v  4.5448 4.1326 -2.6626
v  4.8168 3.1322 -2.8270
v  5.0566 2.1485 -2.9696
v  5.2478 1.1898 -3.0792
v  5.3744 0.2645 -3.1450
v  5.4202 -0.6191 -3.1560
v  4.9800 4.1745 -1.4336
v  5.2834 3.1772 -1.5096
v  5.5507 2.1961 -1.5741
v  5.7640 1.2395 -1.6216
v  5.9052 0.3156 -1.6462
v  5.9563 -0.5675 -1.6423
v  5.8601 -1.2424 1.7370
v  6.0459 -1.2992 0.0722
v  5.6198 -1.8993 1.6737
v  5.7969 -1.9535 0.0875
v  5.3074 -2.4297 1.5839
v  5.4731 -2.4803 0.0998
v  4.9950 -2.8406 1.4913
v  5.1492 -2.8877 0.1093
v  4.7547 -3.1392 1.4197
v  4.9002 -3.1837 0.1162
v  4.6585 -3.3327 1.3928
v  4.8005 -3.3761 0.1207
v  5.3340 -1.1917 3.2227
v  5.1185 -1.8510 3.0893
v  4.8384 -2.3845 2.9084
v  4.5582 -2.7985 2.7247
v  4.3427 -3.0995 2.5830
v  4.2565 -3.2939 2.5280
v  4.5146 -1.1490 4.4741
v  4.3377 -1.8103 4.2817
v  4.1078 -2.3464 4.0241
v  3.8779 -2.7630 3.7636
v  3.7011 -3.0660 3.5629
v  3.6303 -3.2613 3.4843
v  3.4487 -1.1161 5.4362
v  3.3221 -1.7790 5.1985
v  3.1576 -2.3171 4.8818
v  2.9930 -2.7357 4.5624
v  2.8664 -3.0403 4.3163
v  2.8158 -3.2362 4.2195
v  2.1833 -1.0950 6.0539
v  2.1164 -1.7589 5.7870
v  2.0294 -2.2983 5.4325
v  1.9425 -2.7182 5.0752
v  1.8756 -3.0238 4.7999
v  1.8489 -3.2201 4.6915
v  0.7653 -1.0876 6.2720
v  0.7653 -1.7518 5.9948
v  0.7653 -2.2917 5.6270
v  0.7653 -2.7121 5.2563
v  0.7653 -3.0180 4.9707
v  0.7653 -3.2144 4.8582
v  -0.6526 -1.0950 6.0539
v  -0.5857 -1.7589 5.7870
v  -0.4988 -2.2983 5.4325
v  -0.4118 -2.7182 5.0752
v  -0.3449 -3.0238 4.7999
v  -0.3182 -3.2201 4.6915
v  -1.9180 -1.1161 5.4362
v  -1.7914 -1.7790 5.1985
v  -1.6269 -2.3171 4.8818
v  -1.4623 -2.7357 4.5624
v  -1.3358 -3.0403 4.3163
v  -1.2851 -3.2362 4.2195
v  -2.9839 -1.1490 4.4741
v  -2.8071 -1.8103 4.2817
v  -2.5771 -2.3464 4.0241
v  -2.3472 -2.7630 3.7636
v  -2.1704 -3.0660 3.5629
v  -2.0996 -3.2613 3.4843
v  -3.8034 -1.1917 3.2227
v  -3.5879 -1.8510 3.0893
v  -3.3077 -2.3845 2.9084
v  -3.0276 -2.7985 2.7247
v  -2.8121 -3.0995 2.5830
v  -2.7259 -3.2939 2.5280
v  -4.3295 -1.2424 1.7370
v  -4.0892 -1.8993 1.6737
v  -3.7767 -2.4297 1.5839
v  -3.4643 -2.8406 1.4913
v  -3.2240 -3.1392 1.4197
v  -3.1279 -3.3327 1.3928
v  -4.5153 -1.2992 0.0722
v  -4.2662 -1.9535 0.0875
v  -3.9424 -2.4803 0.0998
v  -3.6186 -2.8877 0.1093
v  -3.3695 -3.1837 0.1162
v  -3.2699 -3.3761 0.1207
v  -4.3295 -1.3560 -1.5925
v  -4.0892 -2.0076 -1.4987
v  -3.7767 -2.5310 -1.3844
v  -3.4643 -2.9349 -1.2728
v  -3.2240 -3.2282 -1.1874
v  -3.1279 -3.4195 -1.1515
v  -3.8034 -1.4067 -3.0782
v  -3.5879 -2.0559 -2.9143
v  -3.3077 -2.5762 -2.7088
v  -3.0276 -2.9770 -2.5062
v  -2.8121 -3.2679 -2.3507
v  -2.7259 -3.4583 -2.2867
v  -2.9839 -1.4495 -4.3296
v  -2.8071 -2.0966 -4.1067
v  -2.5771 -2.6143 -3.8245
v  -2.3472 -3.0125 -3.5451
v  -2.1704 -3.3013 -3.3306
v  -2.0996 -3.4909 -3.2430
v  -1.9180 -1.4823 -5.2917
v  -1.7914 -2.1279 -5.0235
v  -1.6269 -2.6436 -4.6823
v  -1.4623 -3.0397 -4.3438
v  -1.3358 -3.3271 -4.0839
v  -1.2851 -3.5160 -3.9782
v  -0.6526 -1.5034 -5.9094
v  -0.5857 -2.1480 -5.6120
v  -0.4988 -2.6623 -5.2329
v  -0.4118 -3.0573 -4.8566
v  -0.3449 -3.3436 -4.5676
v  -0.3182 -3.5321 -4.4502
v  0.7653 -1.5108 -6.1276
v  0.7653 -2.1551 -5.8199
v  0.7653 -2.6690 -5.4274
v  0.7653 -3.0634 -5.0377
v  0.7653 -3.3494 -4.7384
v  0.7653 -3.5378 -4.6169
v  2.1833 -1.5034 -5.9094
v  2.1164 -2.1480 -5.6120
v  2.0294 -2.6623 -5.2329
v  1.9425 -3.0573 -4.8566
v  1.8756 -3.3436 -4.5676
v  1.8489 -3.5321 -4.4502
v  3.4487 -1.4823 -5.2917
v  3.3221 -2.1279 -5.0235
v  3.1576 -2.6436 -4.6823
v  2.9930 -3.0397 -4.3438
v  2.8664 -3.3271 -4.0839
v  2.8158 -3.5160 -3.9782
v  4.5146 -1.4495 -4.3296
v  4.3377 -2.0966 -4.1067
v  4.1078 -2.6143 -3.8245
v  3.8779 -3.0125 -3.5451
v  3.7011 -3.3013 -3.3306
v  3.6303 -3.4909 -3.2430
v  5.3340 -1.4067 -3.0782
v  5.1185 -2.0559 -2.9143
v  4.8384 -2.5762 -2.7088
v  4.5582 -2.9770 -2.5062
v  4.3427 -3.2679 -2.3507
v  4.2565 -3.4583 -2.2867
v  5.8601 -1.3560 -1.5925
v  5.6198 -2.0076 -1.4987
v  5.3074 -2.5310 -1.3844
v  4.9950 -2.9349 -1.2728
v  4.7547 -3.2282 -1.1874
v  4.6585 -3.4195 -1.1515
v  4.6270 -3.4751 1.3858
v  4.7678 -3.5181 0.1240
v  4.4711 -3.6108 1.3380
v  4.6062 -3.6522 0.1271
v  4.0989 -3.7331 1.2191
v  4.2205 -3.7703 0.1298
v  3.4185 -3.8349 0.9990
v  3.5152 -3.8645 0.1320
v  2.3379 -3.9093 0.6474
v  2.3953 -3.9269 0.1335
v  0.7653 -3.9494 0.1340
v  4.2282 -3.4366 2.5119
v  4.0884 -3.5739 2.4186
v  3.7547 -3.6999 2.1912
v  3.1445 -3.8085 1.7726
v  2.1755 -3.8937 1.1059
v  3.6071 -3.4042 3.4604
v  3.4924 -3.5429 3.3288
v  3.2185 -3.6720 3.0100
v  2.7178 -3.7863 2.4243
v  1.9226 -3.8805 1.4922
v  2.7992 -3.3793 4.1896
v  2.7171 -3.5190 4.0286
v  2.5210 -3.6505 3.6395
v  2.1627 -3.7692 2.9254
v  1.5936 -3.8704 1.7892
v  1.8401 -3.3634 4.6578
v  1.7967 -3.5037 4.4779
v  1.6931 -3.6367 4.0437
v  1.5037 -3.7582 3.2470
v  1.2030 -3.8638 1.9798
v  0.7653 -3.3577 4.8232
v  0.7653 -3.4982 4.6366
v  0.7653 -3.6318 4.1864
v  0.7653 -3.7543 3.3606
v  0.7653 -3.8616 2.0472
v  -0.3094 -3.3634 4.6578
v  -0.2660 -3.5037 4.4779
v  -0.1624 -3.6367 4.0437
v  0.0269 -3.7582 3.2470
v  0.3277 -3.8638 1.9798
v  -1.2685 -3.3793 4.1896
v  -1.1864 -3.5190 4.0286
v  -0.9904 -3.6505 3.6395
v  -0.6320 -3.7692 2.9254
v  -0.0629 -3.8704 1.7892
v  -2.0764 -3.4042 3.4604
v  -1.9617 -3.5429 3.3288
v  -1.6878 -3.6720 3.0100
v  -1.1871 -3.7863 2.4243
v  -0.3919 -3.8805 1.4922
v  -2.6976 -3.4366 2.5119
v  -2.5578 -3.5739 2.4186
v  -2.2240 -3.6999 2.1912
v  -1.6138 -3.8085 1.7726
v  -0.6449 -3.8937 1.1059
v  -3.0963 -3.4751 1.3858
v  -2.9404 -3.6108 1.3380
v  -2.5682 -3.7331 1.2191
v  -1.8878 -3.8349 0.9990
v  -0.8073 -3.9093 0.6474
v  -3.2372 -3.5181 0.1240
v  -3.0756 -3.6522 0.1271
v  -2.6898 -3.7703 0.1298
v  -1.9846 -3.8645 0.1320
v  -0.8646 -3.9269 0.1335
v  -3.0963 -3.5612 -1.1379
v  -2.9404 -3.6935 -1.0838
v  -2.5682 -3.8075 -0.9594
v  -1.8878 -3.8941 -0.7349
v  -0.8073 -3.9444 -0.3804
v  -2.6976 -3.5996 -2.2639
v  -2.5578 -3.7304 -2.1644
v  -2.2240 -3.8406 -1.9315
v  -1.6138 -3.9205 -1.5086
v  -0.6449 -3.9601 -0.8389
v  -2.0764 -3.6320 -3.2125
v  -1.9617 -3.7614 -3.0746
v  -1.6878 -3.8686 -2.7503
v  -1.1871 -3.9427 -2.1602
v  -0.3919 -3.9732 -1.2252
v  -1.2685 -3.6569 -3.9417
v  -1.1864 -3.7853 -3.7744
v  -0.9904 -3.8901 -3.3798
v  -0.6320 -3.9598 -2.6613
v  -0.0629 -3.9834 -1.5222
v  -0.3094 -3.6729 -4.4099
v  -0.2660 -3.8007 -4.2237
v  -0.1624 -3.9039 -3.7840
v  0.0269 -3.9708 -2.9829
v  0.3277 -3.9899 -1.7128
v  0.7653 -3.6785 -4.5752
v  0.7653 -3.8061 -4.3824
v  0.7653 -3.9087 -3.9267
v  0.7653 -3.9747 -3.0965
v  0.7653 -3.9922 -1.7802
v  1.8401 -3.6729 -4.4099
v  1.7967 -3.8007 -4.2237
v  1.6931 -3.9039 -3.7840
v  1.5037 -3.9708 -2.9829
v  1.2030 -3.9899 -1.7128
v  2.7992 -3.6569 -3.9417
v  2.7171 -3.7853 -3.7744
v  2.5210 -3.8901 -3.3798
v  2.1627 -3.9598 -2.6613
v  1.5936 -3.9834 -1.5222
v  3.6071 -3.6320 -3.2125
v  3.4924 -3.7614 -3.0746
v  3.2185 -3.8686 -2.7503
v  2.7178 -3.9427 -2.1602
v  1.9226 -3.9732 -1.2252
v  4.2282 -3.5996 -2.2639
v  4.0884 -3.7304 -2.1644
v  3.7547 -3.8406 -1.9315
v  3.1445 -3.9205 -1.5086
v  2.1755 -3.9601 -0.8389
v  4.6270 -3.5612 -1.1379
v  4.4711 -3.6935 -1.0838
v  4.0989 -3.8075 -0.9594
v  3.4185 -3.8941 -0.7349
v  2.3379 -3.9444 -0.3804
v  -3.5389 3.7902 -0.0464
v  -3.5189 3.8674 0.3469
v  -4.4186 3.8631 0.3470
v  -4.4119 3.7863 -0.0463
v  -5.1703 3.8332 0.3477
v  -5.1430 3.7584 -0.0456
v  -5.7669 3.7520 0.3496
v  -5.7246 3.6827 -0.0439
v  -6.2017 3.5937 0.3533
v  -6.1493 3.5354 -0.0404
v  -6.4676 3.3329 0.3594
v  -6.4096 3.2926 -0.0348
v  -6.5578 2.9438 0.3685
v  -6.4980 2.9303 -0.0263
v  -3.4691 4.0348 0.5801
v  -4.4355 4.0297 0.5802
v  -5.2386 3.9947 0.5810
v  -5.8728 3.8994 0.5833
v  -6.3327 3.7139 0.5876
v  -6.6127 3.4081 0.5947
v  -6.7072 2.9518 0.6053
v  -3.4044 4.2445 0.6542
v  -4.4574 4.2385 0.6544
v  -5.3273 4.1967 0.6553
v  -6.0104 4.0832 0.6580
v  -6.5030 3.8623 0.6631
v  -6.8013 3.4980 0.6716
v  -6.9015 2.9545 0.6843
v  -3.3396 4.4488 0.5704
v  -4.4793 4.4419 0.5706
v  -5.4160 4.3934 0.5717
v  -6.1480 4.2617 0.5748
v  -6.6733 4.0053 0.5808
v  -6.9899 3.5825 0.5906
v  -7.0958 2.9518 0.6053
v  -3.2898 4.6000 0.3299
v  -4.4961 4.5923 0.3300
v  -5.4843 4.5386 0.3313
v  -6.2539 4.3930 0.3347
v  -6.8043 4.1092 0.3413
v  -7.1349 3.6415 0.3522
v  -7.2453 2.9438 0.3685
v  -3.2699 4.6502 -0.0664
v  -4.5028 4.6422 -0.0662
v  -5.5116 4.5865 -0.0649
v  -6.2962 4.4352 -0.0614
v  -6.8567 4.1406 -0.0545
v  -7.1930 3.6549 -0.0432
v  -7.3050 2.9303 -0.0263
v  -3.2898 4.5730 -0.4597
v  -4.4961 4.5654 -0.4596
v  -5.4843 4.5117 -0.4583
v  -6.2539 4.3660 -0.4549
v  -6.8043 4.0823 -0.4483
v  -7.1349 3.6146 -0.4374
v  -7.2453 2.9168 -0.4211
v  -3.3396 4.4057 -0.6929
v  -4.4793 4.3988 -0.6927
v  -5.4160 4.3502 -0.6916
v  -6.1480 4.2186 -0.6885
v  -6.6733 3.9621 -0.6826
v  -6.9899 3.5394 -0.6727
v  -7.0958 2.9087 -0.6580
v  -3.4044 4.1960 -0.7670
v  -4.4574 4.1900 -0.7669
v  -5.3273 4.1482 -0.7659
v  -6.0104 4.0347 -0.7633
v  -6.5030 3.8138 -0.7581
v  -6.8013 3.4495 -0.7496
v  -6.9015 2.9060 -0.7370
v  -3.4691 3.9916 -0.6833
v  -4.4355 3.9866 -0.6831
v  -5.2386 3.9515 -0.6823
v  -5.8728 3.8563 -0.6801
v  -6.3327 3.6708 -0.6758
v  -6.6127 3.3649 -0.6686
v  -6.7072 2.9087 -0.6580
v  -3.5189 3.8405 -0.4427
v  -4.4186 3.8362 -0.4426
v  -5.1703 3.8063 -0.4419
v  -5.7669 3.7250 -0.4400
v  -6.2017 3.5668 -0.4363
v  -6.4676 3.3059 -0.4302
v  -6.5578 2.9168 -0.4211
v  -6.5093 2.4239 0.3806
v  -6.4519 2.4366 -0.0148
v  -6.3589 1.8176 0.3947
v  -6.3087 1.8474 -0.0011
v  -6.0995 1.1694 0.4098
v  -6.0609 1.2104 0.0138
v  -5.7238 0.5239 0.4249
v  -5.7009 0.5733 0.0286
v  -5.2247 -0.0744 0.4388
v  -5.2214 -0.0159 0.0423
v  -4.5950 -0.5810 0.4506
v  -6.6526 2.3665 0.6190
v  -6.4843 1.7175 0.6341
v  -6.1960 1.0415 0.6499
v  -5.7810 0.3747 0.6654
v  -5.2329 -0.2464 0.6799
v  -4.5452 -0.7853 0.6924
v  -6.8389 2.2840 0.6999
v  -6.6475 1.5797 0.7163
v  -6.3215 0.8673 0.7329
v  -5.8554 0.1729 0.7491
v  -5.2435 -0.4777 0.7643
v  -4.4804 -1.0586 0.7778
v  -7.0253 2.1962 0.6230
v  -6.8106 1.4364 0.6407
v  -6.4469 0.6878 0.6581
v  -5.9297 -0.0342 0.6749
v  -5.2542 -0.7144 0.6908
v  -4.4156 -1.3374 0.7053
v  -7.1686 2.1226 0.3876
v  -6.9360 1.3202 0.4063
v  -6.5435 0.5437 0.4244
v  -5.9869 -0.1996 0.4417
v  -5.2624 -0.9025 0.4581
v  -4.3658 -1.5578 0.4734
v  -7.2260 2.0829 -0.0066
v  -6.9862 1.2634 0.0125
v  -6.5821 0.4758 0.0309
v  -6.0098 -0.2760 0.0484
v  -5.2657 -0.9880 0.0650
v  -4.3459 -1.6562 0.0806
v  -7.1686 2.0956 -0.4020
v  -6.9360 1.2932 -0.3833
v  -6.5435 0.5167 -0.3652
v  -5.9869 -0.2266 -0.3479
v  -5.2624 -0.9295 -0.3315
v  -4.3658 -1.5847 -0.3162
v  -7.0253 2.1531 -0.6404
v  -6.8106 1.3933 -0.6227
v  -6.4469 0.6447 -0.6052
v  -5.9297 -0.0774 -0.5884
v  -5.2542 -0.7575 -0.5726
v  -4.4156 -1.3805 -0.5580
v  -6.8389 2.2355 -0.7213
v  -6.6475 1.5311 -0.7049
v  -6.3215 0.8188 -0.6883
v  -5.8554 0.1244 -0.6721
v  -5.2435 -0.5262 -0.6570
v  -4.4804 -1.1071 -0.6434
v  -6.6526 2.3233 -0.6444
v  -6.4843 1.6744 -0.6292
v  -6.1960 0.9984 -0.6135
v  -5.7810 0.3316 -0.5979
v  -5.2329 -0.2895 -0.5835
v  -4.5452 -0.8284 -0.5709
v  -6.5093 2.3969 -0.4090
v  -6.3589 1.7906 -0.3949
v  -6.0995 1.1425 -0.3798
v  -5.7238 0.4970 -0.3647
v  -5.2247 -0.1014 -0.3508
v  -4.5950 -0.6080 -0.3390
v  5.3385 1.4970 0.0071
v  5.3385 1.2931 0.8811
v  6.3403 1.5261 0.8356
v  6.3038 1.6934 0.0025
v  6.9260 2.0838 0.7226
v  6.8729 2.2083 -0.0095
v  7.2478 2.8499 0.5748
v  7.1880 2.9303 -0.0263
v  7.4574 3.7079 0.4248
v  7.3910 3.7478 -0.0454
v  7.7069 4.5417 0.3054
v  7.6239 4.5493 -0.0641
v  8.1482 5.2347 0.2492
v  8.0287 5.2235 -0.0798
v  5.3385 0.7269 1.4158
v  6.4316 1.0540 1.3442
v  7.0589 1.7252 1.1686
v  7.3972 2.6100 0.9399
v  7.6235 3.5780 0.7094
v  7.9145 4.4986 0.5279
v  8.4471 5.2415 0.4466
v  5.3385 -0.0262 1.6072
v  6.5503 0.4239 1.5247
v  7.2316 1.2445 1.3256
v  7.5915 2.2863 1.0673
v  7.8394 3.3997 0.8074
v  8.1843 4.4353 0.6033
v  8.8357 5.2437 0.5124
v  5.3385 -0.7913 1.4512
v  6.6691 -0.2176 1.3738
v  7.4043 0.7539 1.1912
v  7.7858 1.9544 0.9552
v  8.0552 3.2150 0.7178
v  8.4542 4.3670 0.5310
v  9.2243 5.2415 0.4466
v  5.3385 -1.3930 0.9437
v  6.7604 -0.7236 0.8881
v  7.5371 0.3654 0.7627
v  7.9353 1.6900 0.6018
v  8.2213 3.0658 0.4398
v  8.6618 4.3088 0.3108
v  9.5232 5.2347 0.2492
v  5.3385 -1.6562 0.0806
v  6.7969 -0.9475 0.0640
v  7.5903 0.1911 0.0375
v  7.9950 1.5687 0.0054
v  8.2877 2.9940 -0.0278
v  8.7448 4.2760 -0.0577
v  9.6427 5.2235 -0.0798
v  5.3385 -1.4523 -0.7934
v  6.7604 -0.7802 -0.7691
v  7.5371 0.3157 -0.6946
v  7.9353 1.6491 -0.5957
v  8.2213 3.0338 -0.4980
v  8.6618 4.2836 -0.4271
v  9.5232 5.2123 -0.4088
v  5.3385 -0.8861 -1.3282
v  6.6691 -0.3081 -1.2777
v  7.4043 0.6743 -1.1406
v  7.7858 1.8890 -0.9609
v  8.0552 3.1638 -0.7826
v  8.4542 4.3267 -0.6497
v  9.2243 5.2055 -0.6062
v  5.3385 -0.1330 -1.5196
v  6.5503 0.3220 -1.4582
v  7.2316 1.1550 -1.2976
v  7.5915 2.2127 -1.0883
v  7.8394 3.3421 -0.8806
v  8.1843 4.3900 -0.7250
v  8.8357 5.2033 -0.6720
v  5.3385 0.6321 -1.3636
v  6.4316 0.9635 -1.3073
v  7.0589 1.6456 -1.1632
v  7.3972 2.5446 -0.9762
v  7.6235 3.5267 -0.7911
v  7.9145 4.4583 -0.6528
v  8.4471 5.2055 -0.6062
v  5.3385 1.2338 -0.8560
v  6.3403 1.4695 -0.8215
v  6.9260 2.0340 -0.7347
v  7.2478 2.8090 -0.6228
v  7.4574 3.6759 -0.5130
v  7.7069 4.5165 -0.4326
v  8.1482 5.2123 -0.4088
v  8.2880 5.3564 0.2366
v  8.1607 5.3430 -0.0826
v  8.4047 5.4294 0.2105
v  8.2778 5.4146 -0.0842
v  8.4851 5.4535 0.1783
v  8.3649 5.4385 -0.0848
v  8.5161 5.4284 0.1471
v  8.4073 5.4146 -0.0842
v  8.4846 5.3541 0.1245
v  8.3898 5.3430 -0.0826
v  8.3774 5.2303 0.1176
v  8.2977 5.2235 -0.0798
v  8.6063 5.3694 0.4280
v  8.7220 5.4472 0.3872
v  8.7856 5.4738 0.3358
v  8.7883 5.4479 0.2857
v  8.7215 5.3685 0.2485
v  8.5767 5.2343 0.2360
v  9.0202 5.3800 0.4917
v  9.1346 5.4646 0.4458
v  9.1762 5.4950 0.3880
v  9.1421 5.4687 0.3316
v  9.0295 5.3831 0.2897
v  8.8357 5.2356 0.2755
v  9.4340 5.3862 0.4276
v  9.5472 5.4779 0.3865
v  9.5668 5.5126 0.3349
v  9.4959 5.4862 0.2848
v  9.3375 5.3948 0.2479
v  9.0948 5.2343 0.2360
v  9.7524 5.3861 0.2359
v  9.8645 5.4837 0.2093
v  9.8672 5.5221 0.1767
v  9.7680 5.4963 0.1456
v  9.5744 5.4007 0.1234
v  9.2940 5.2303 0.1176
v  9.8797 5.3778 -0.0834
v  9.9915 5.4783 -0.0857
v  9.9874 5.5191 -0.0867
v  9.8769 5.4942 -0.0861
v  9.6692 5.3977 -0.0838
v  9.3737 5.2235 -0.0798
v  9.7524 5.3643 -0.4026
v  9.8645 5.4635 -0.3805
v  9.8672 5.5042 -0.3497
v  9.7680 5.4804 -0.3175
v  9.5744 5.3866 -0.2909
v  9.2940 5.2168 -0.2772
v  9.4340 5.3513 -0.5940
v  9.5472 5.4457 -0.5572
v  9.5668 5.4839 -0.5073
v  9.4959 5.4610 -0.4560
v  9.3375 5.3722 -0.4150
v  9.0948 5.2127 -0.3956
v  9.0202 5.3408 -0.6576
v  9.1346 5.4284 -0.6158
v  9.1762 5.4626 -0.5595
v  9.1421 5.4402 -0.5019
v  9.0295 5.3576 -0.4561
v  8.8357 5.2114 -0.4351
v  8.6063 5.3346 -0.5936
v  8.7220 5.4150 -0.5564
v  8.7856 5.4450 -0.5064
v  8.7883 5.4226 -0.4552
v  8.7215 5.3458 -0.4143
v  8.5767 5.2127 -0.3956
v  8.2880 5.3346 -0.4019
v  8.4047 5.4093 -0.3792
v  8.4851 5.4355 -0.3481
v  8.5161 5.4126 -0.3159
v  8.4846 5.3399 -0.2898
v  8.3774 5.2168 -0.2772
# 888 vertices

g _null_
f 1 2 3 
f 3 4 1 
f 4 3 5 
f 5 6 4 
f 6 5 7 
f 7 8 6 
f 8 7 9 
f 9 10 8 
f 10 9 11 
f 11 12 10 
f 12 11 13 
f 13 14 12 
f 2 15 16 
f 16 3 2 
f 3 16 17 
f 17 5 3 
f 5 17 18 
f 18 7 5 
f 7 18 19 
f 19 9 7 
f 9 19 20 
f 20 11 9 
f 11 20 21 
f 21 13 11 
f 15 22 23 
f 23 16 15 
f 16 23 24 
f 24 17 16 
f 17 24 25 
f 25 18 17 
f 18 25 26 
f 26 19 18 
f 19 26 27 
f 27 20 19 
f 20 27 28 
f 28 21 20 
f 22 29 30 
f 30 23 22 
f 23 30 31 
f 31 24 23 
f 24 31 32 
f 32 25 24 
f 25 32 33 
f 33 26 25 
f 26 33 34 
f 34 27 26 
f 27 34 35 
f 35 28 27 
f 29 36 37 
f 37 30 29 
f 30 37 38 
f 38 31 30 
f 31 38 39 
f 39 32 31 
f 32 39 40 
f 40 33 32 
f 33 40 41 
f 41 34 33 
f 34 41 42 
f 42 35 34 
f 36 43 44 
f 44 37 36 
f 37 44 45 
f 45 38 37 
f 38 45 46 
f 46 39 38 
f 39 46 47 
f 47 40 39 
f 40 47 48 
f 48 41 40 
f 41 48 49 
f 49 42 41 
f 43 50 51 
f 51 44 43 
f 44 51 52 
f 52 45 44 
f 45 52 53 
f 53 46 45 
f 46 53 54 
f 54 47 46 
f 47 54 55 
f 55 48 47 
f 48 55 56 
f 56 49 48 
f 50 57 58 
f 58 51 50 
f 51 58 59 
f 59 52 51 
f 52 59 60 
f 60 53 52 
f 53 60 61 
f 61 54 53 
f 54 61 62 
f 62 55 54 
f 55 62 63 
f 63 56 55 
f 57 64 65 
f 65 58 57 
f 58 65 66 
f 66 59 58 
f 59 66 67 
f 67 60 59 
f 60 67 68 
f 68 61 60 
f 61 68 69 
f 69 62 61 
f 62 69 70 
f 70 63 62 
f 64 71 72 
f 72 65 64 
f 65 72 73 
f 73 66 65 
f 66 73 74 
f 74 67 66 
f 67 74 75 
f 75 68 67 
f 68 75 76 
f 76 69 68 
f 69 76 77 
f 77 70 69 
f 71 78 79 
f 79 72 71 
f 72 79 80 
f 80 73 72 
f 73 80 81 
f 81 74 73 
f 74 81 82 
f 82 75 74 
f 75 82 83 
f 83 76 75 
f 76 83 84 
f 84 77 76 
f 78 85 86 
f 86 79 78 
f 79 86 87 
f 87 80 79 
f 80 87 88 
f 88 81 80 
f 81 88 89 
f 89 82 81 
f 82 89 90 
f 90 83 82 
f 83 90 91 
f 91 84 83 
f 85 92 93 
f 93 86 85 
f 86 93 94 
f 94 87 86 
f 87 94 95 
f 95 88 87 
f 88 95 96 
f 96 89 88 
f 89 96 97 
f 97 90 89 
f 90 97 98 
f 98 91 90 
f 92 99 100 
f 100 93 92 
f 93 100 101 
f 101 94 93 
f 94 101 102 
f 102 95 94 
f 95 102 103 
f 103 96 95 
f 96 103 104 
f 104 97 96 
f 97 104 105 
f 105 98 97 
f 99 106 107 
f 107 100 99 
f 100 107 108 
f 108 101 100 
f 101 108 109 
f 109 102 101 
f 102 109 110 
f 110 103 102 
f 103 110 111 
f 111 104 103 
f 104 111 112 
f 112 105 104 
f 106 113 114 
f 114 107 106 
f 107 114 115 
f 115 108 107 
f 108 115 116 
f 116 109 108 
f 109 116 117 
f 117 110 109 
f 110 117 118 
f 118 111 110 
f 111 118 119 
f 119 112 111 
f 113 120 121 
f 121 114 113 
f 114 121 122 
f 122 115 114 
f 115 122 123 
f 123 116 115 
f 116 123 124 
f 124 117 116 
f 117 124 125 
f 125 118 117 
f 118 125 126 
f 126 119 118 
f 120 127 128 
f 128 121 120 
f 121 128 129 
f 129 122 121 
f 122 129 130 
f 130 123 122 
f 123 130 131 
f 131 124 123 
f 124 131 132 
f 132 125 124 
f 125 132 133 
f 133 126 125 
f 127 134 135 
f 135 128 127 
f 128 135 136 
f 136 129 128 
f 129 136 137 
f 137 130 129 
f 130 137 138 
f 138 131 130 
f 131 138 139 
f 139 132 131 
f 132 139 140 
f 140 133 132 
f 134 141 142 
f 142 135 134 
f 135 142 143 
f 143 136 135 
f 136 143 144 
f 144 137 136 
f 137 144 145 
f 145 138 137 
f 138 145 146 
f 146 139 138 
f 139 146 147 
f 147 140 139 
f 141 148 149 
f 149 142 141 
f 142 149 150 
f 150 143 142 
f 143 150 151 
f 151 144 143 
f 144 151 152 
f 152 145 144 
f 145 152 153 
f 153 146 145 
f 146 153 154 
f 154 147 146 
f 148 155 156 
f 156 149 148 
f 149 156 157 
f 157 150 149 
f 150 157 158 
f 158 151 150 
f 151 158 159 
f 159 152 151 
f 152 159 160 
f 160 153 152 
f 153 160 161 
f 161 154 153 
f 155 162 163 
f 163 156 155 
f 156 163 164 
f 164 157 156 
f 157 164 165 
f 165 158 157 
f 158 165 166 
f 166 159 158 
f 159 166 167 
f 167 160 159 
f 160 167 168 
f 168 161 160 
f 162 1 4 
f 4 163 162 
f 163 4 6 
f 6 164 163 
f 164 6 8 
f 8 165 164 
f 165 8 10 
f 10 166 165 
f 166 10 12 
f 12 167 166 
f 167 12 14 
f 14 168 167 
f 14 13 169 
f 169 170 14 
f 170 169 171 
f 171 172 170 
f 172 171 173 
f 173 174 172 
f 174 173 175 
f 175 176 174 
f 176 175 177 
f 177 178 176 
f 178 177 179 
f 179 180 178 
f 13 21 181 
f 181 169 13 
f 169 181 182 
f 182 171 169 
f 171 182 183 
f 183 173 171 
f 173 183 184 
f 184 175 173 
f 175 184 185 
f 185 177 175 
f 177 185 186 
f 186 179 177 
f 21 28 187 
f 187 181 21 
f 181 187 188 
f 188 182 181 
f 182 188 189 
f 189 183 182 
f 183 189 190 
f 190 184 183 
f 184 190 191 
f 191 185 184 
f 185 191 192 
f 192 186 185 
f 28 35 193 
f 193 187 28 
f 187 193 194 
f 194 188 187 
f 188 194 195 
f 195 189 188 
f 189 195 196 
f 196 190 189 
f 190 196 197 
f 197 191 190 
f 191 197 198 
f 198 192 191 
f 35 42 199 
f 199 193 35 
f 193 199 200 
f 200 194 193 
f 194 200 201 
f 201 195 194 
f 195 201 202 
f 202 196 195 
f 196 202 203 
f 203 197 196 
f 197 203 204 
f 204 198 197 
f 42 49 205 
f 205 199 42 
f 199 205 206 
f 206 200 199 
f 200 206 207 
f 207 201 200 
f 201 207 208 
f 208 202 201 
f 202 208 209 
f 209 203 202 
f 203 209 210 
f 210 204 203 
f 49 56 211 
f 211 205 49 
f 205 211 212 
f 212 206 205 
f 206 212 213 
f 213 207 206 
f 207 213 214 
f 214 208 207 
f 208 214 215 
f 215 209 208 
f 209 215 216 
f 216 210 209 
f 56 63 217 
f 217 211 56 
f 211 217 218 
f 218 212 211 
f 212 218 219 
f 219 213 212 
f 213 219 220 
f 220 214 213 
f 214 220 221 
f 221 215 214 
f 215 221 222 
f 222 216 215 
f 63 70 223 
f 223 217 63 
f 217 223 224 
f 224 218 217 
f 218 224 225 
f 225 219 218 
f 219 225 226 
f 226 220 219 
f 220 226 227 
f 227 221 220 
f 221 227 228 
f 228 222 221 
f 70 77 229 
f 229 223 70 
f 223 229 230 
f 230 224 223 
f 224 230 231 
f 231 225 224 
f 225 231 232 
f 232 226 225 
f 226 232 233 
f 233 227 226 
f 227 233 234 
f 234 228 227 
f 77 84 235 
f 235 229 77 
f 229 235 236 
f 236 230 229 
f 230 236 237 
f 237 231 230 
f 231 237 238 
f 238 232 231 
f 232 238 239 
f 239 233 232 
f 233 239 240 
f 240 234 233 
f 84 91 241 
f 241 235 84 
f 235 241 242 
f 242 236 235 
f 236 242 243 
f 243 237 236 
f 237 243 244 
f 244 238 237 
f 238 244 245 
f 245 239 238 
f 239 245 246 
f 246 240 239 
f 91 98 247 
f 247 241 91 
f 241 247 248 
f 248 242 241 
f 242 248 249 
f 249 243 242 
f 243 249 250 
f 250 244 243 
f 244 250 251 
f 251 245 244 
f 245 251 252 
f 252 246 245 
f 98 105 253 
f 253 247 98 
f 247 253 254 
f 254 248 247 
f 248 254 255 
f 255 249 248 
f 249 255 256 
f 256 250 249 
f 250 256 257 
f 257 251 250 
f 251 257 258 
f 258 252 251 
f 105 112 259 
f 259 253 105 
f 253 259 260 
f 260 254 253 
f 254 260 261 
f 261 255 254 
f 255 261 262 
f 262 256 255 
f 256 262 263 
f 263 257 256 
f 257 263 264 
f 264 258 257 
f 112 119 265 
f 265 259 112 
f 259 265 266 
f 266 260 259 
f 260 266 267 
f 267 261 260 
f 261 267 268 
f 268 262 261 
f 262 268 269 
f 269 263 262 
f 263 269 270 
f 270 264 263 
f 119 126 271 
f 271 265 119 
f 265 271 272 
f 272 266 265 
f 266 272 273 
f 273 267 266 
f 267 273 274 
f 274 268 267 
f 268 274 275 
f 275 269 268 
f 269 275 276 
f 276 270 269 
f 126 133 277 
f 277 271 126 
f 271 277 278 
f 278 272 271 
f 272 278 279 
f 279 273 272 
f 273 279 280 
f 280 274 273 
f 274 280 281 
f 281 275 274 
f 275 281 282 
f 282 276 275 
f 133 140 283 
f 283 277 133 
f 277 283 284 
f 284 278 277 
f 278 284 285 
f 285 279 278 
f 279 285 286 
f 286 280 279 
f 280 286 287 
f 287 281 280 
f 281 287 288 
f 288 282 281 
f 140 147 289 
f 289 283 140 
f 283 289 290 
f 290 284 283 
f 284 290 291 
f 291 285 284 
f 285 291 292 
f 292 286 285 
f 286 292 293 
f 293 287 286 
f 287 293 294 
f 294 288 287 
f 147 154 295 
f 295 289 147 
f 289 295 296 
f 296 290 289 
f 290 296 297 
f 297 291 290 
f 291 297 298 
f 298 292 291 
f 292 298 299 
f 299 293 292 
f 293 299 300 
f 300 294 293 
f 154 161 301 
f 301 295 154 
f 295 301 302 
f 302 296 295 
f 296 302 303 
f 303 297 296 
f 297 303 304 
f 304 298 297 
f 298 304 305 
f 305 299 298 
f 299 305 306 
f 306 300 299 
f 161 168 307 
f 307 301 161 
f 301 307 308 
f 308 302 301 
f 302 308 309 
f 309 303 302 
f 303 309 310 
f 310 304 303 
f 304 310 311 
f 311 305 304 
f 305 311 312 
f 312 306 305 
f 168 14 170 
f 170 307 168 
f 307 170 172 
f 172 308 307 
f 308 172 174 
f 174 309 308 
f 309 174 176 
f 176 310 309 
f 310 176 178 
f 178 311 310 
f 311 178 180 
f 180 312 311 
f 180 179 313 
f 313 314 180 
f 314 313 315 
f 315 316 314 
f 316 315 317 
f 317 318 316 
f 318 317 319 
f 319 320 318 
f 320 319 321 
f 321 322 320 
f 322 321 323 
f 323 324 322 
f 179 186 325 
f 325 313 179 
f 313 325 326 
f 326 315 313 
f 315 326 327 
f 327 317 315 
f 317 327 328 
f 328 319 317 
f 319 328 329 
f 329 321 319 
f 321 329 330 
f 330 323 321 
f 186 192 331 
f 331 325 186 
f 325 331 332 
f 332 326 325 
f 326 332 333 
f 333 327 326 
f 327 333 334 
f 334 328 327 
f 328 334 335 
f 335 329 328 
f 329 335 336 
f 336 330 329 
f 192 198 337 
f 337 331 192 
f 331 337 338 
f 338 332 331 
f 332 338 339 
f 339 333 332 
f 333 339 340 
f 340 334 333 
f 334 340 341 
f 341 335 334 
f 335 341 342 
f 342 336 335 
f 198 204 343 
f 343 337 198 
f 337 343 344 
f 344 338 337 
f 338 344 345 
f 345 339 338 
f 339 345 346 
f 346 340 339 
f 340 346 347 
f 347 341 340 
f 341 347 348 
f 348 342 341 
f 204 210 349 
f 349 343 204 
f 343 349 350 
f 350 344 343 
f 344 350 351 
f 351 345 344 
f 345 351 352 
f 352 346 345 
f 346 352 353 
f 353 347 346 
f 347 353 354 
f 354 348 347 
f 210 216 355 
f 355 349 210 
f 349 355 356 
f 356 350 349 
f 350 356 357 
f 357 351 350 
f 351 357 358 
f 358 352 351 
f 352 358 359 
f 359 353 352 
f 353 359 360 
f 360 354 353 
f 216 222 361 
f 361 355 216 
f 355 361 362 
f 362 356 355 
f 356 362 363 
f 363 357 356 
f 357 363 364 
f 364 358 357 
f 358 364 365 
f 365 359 358 
f 359 365 366 
f 366 360 359 
f 222 228 367 
f 367 361 222 
f 361 367 368 
f 368 362 361 
f 362 368 369 
f 369 363 362 
f 363 369 370 
f 370 364 363 
f 364 370 371 
f 371 365 364 
f 365 371 372 
f 372 366 365 
f 228 234 373 
f 373 367 228 
f 367 373 374 
f 374 368 367 
f 368 374 375 
f 375 369 368 
f 369 375 376 
f 376 370 369 
f 370 376 377 
f 377 371 370 
f 371 377 378 
f 378 372 371 
f 234 240 379 
f 379 373 234 
f 373 379 380 
f 380 374 373 
f 374 380 381 
f 381 375 374 
f 375 381 382 
f 382 376 375 
f 376 382 383 
f 383 377 376 
f 377 383 384 
f 384 378 377 
f 240 246 385 
f 385 379 240 
f 379 385 386 
f 386 380 379 
f 380 386 387 
f 387 381 380 
f 381 387 388 
f 388 382 381 
f 382 388 389 
f 389 383 382 
f 383 389 390 
f 390 384 383 
f 246 252 391 
f 391 385 246 
f 385 391 392 
f 392 386 385 
f 386 392 393 
f 393 387 386 
f 387 393 394 
f 394 388 387 
f 388 394 395 
f 395 389 388 
f 389 395 396 
f 396 390 389 
f 252 258 397 
f 397 391 252 
f 391 397 398 
f 398 392 391 
f 392 398 399 
f 399 393 392 
f 393 399 400 
f 400 394 393 
f 394 400 401 
f 401 395 394 
f 395 401 402 
f 402 396 395 
f 258 264 403 
f 403 397 258 
f 397 403 404 
f 404 398 397 
f 398 404 405 
f 405 399 398 
f 399 405 406 
f 406 400 399 
f 400 406 407 
f 407 401 400 
f 401 407 408 
f 408 402 401 
f 264 270 409 
f 409 403 264 
f 403 409 410 
f 410 404 403 
f 404 410 411 
f 411 405 404 
f 405 411 412 
f 412 406 405 
f 406 412 413 
f 413 407 406 
f 407 413 414 
f 414 408 407 
f 270 276 415 
f 415 409 270 
f 409 415 416 
f 416 410 409 
f 410 416 417 
f 417 411 410 
f 411 417 418 
f 418 412 411 
f 412 418 419 
f 419 413 412 
f 413 419 420 
f 420 414 413 
f 276 282 421 
f 421 415 276 
f 415 421 422 
f 422 416 415 
f 416 422 423 
f 423 417 416 
f 417 423 424 
f 424 418 417 
f 418 424 425 
f 425 419 418 
f 419 425 426 
f 426 420 419 
f 282 288 427 
f 427 421 282 
f 421 427 428 
f 428 422 421 
f 422 428 429 
f 429 423 422 
f 423 429 430 
f 430 424 423 
f 424 430 431 
f 431 425 424 
f 425 431 432 
f 432 426 425 
f 288 294 433 
f 433 427 288 
f 427 433 434 
f 434 428 427 
f 428 434 435 
f 435 429 428 
f 429 435 436 
f 436 430 429 
f 430 436 437 
f 437 431 430 
f 431 437 438 
f 438 432 431 
f 294 300 439 
f 439 433 294 
f 433 439 440 
f 440 434 433 
f 434 440 441 
f 441 435 434 
f 435 441 442 
f 442 436 435 
f 436 442 443 
f 443 437 436 
f 437 443 444 
f 444 438 437 
f 300 306 445 
f 445 439 300 
f 439 445 446 
f 446 440 439 
f 440 446 447 
f 447 441 440 
f 441 447 448 
f 448 442 441 
f 442 448 449 
f 449 443 442 
f 443 449 450 
f 450 444 443 
f 306 312 451 
f 451 445 306 
f 445 451 452 
f 452 446 445 
f 446 452 453 
f 453 447 446 
f 447 453 454 
f 454 448 447 
f 448 454 455 
f 455 449 448 
f 449 455 456 
f 456 450 449 
f 312 180 314 
f 314 451 312 
f 451 314 316 
f 316 452 451 
f 452 316 318 
f 318 453 452 
f 453 318 320 
f 320 454 453 
f 454 320 322 
f 322 455 454 
f 455 322 324 
f 324 456 455 
f 324 323 457 
f 457 458 324 
f 458 457 459 
f 459 460 458 
f 460 459 461 
f 461 462 460 
f 462 461 463 
f 463 464 462 
f 464 463 465 
f 465 466 464 
f 466 465 467 
f 323 330 468 
f 468 457 323 
f 457 468 469 
f 469 459 457 
f 459 469 470 
f 470 461 459 
f 461 470 471 
f 471 463 461 
f 463 471 472 
f 472 465 463 
f 465 472 467 
f 330 336 473 
f 473 468 330 
f 468 473 474 
f 474 469 468 
f 469 474 475 
f 475 470 469 
f 470 475 476 
f 476 471 470 
f 471 476 477 
f 477 472 471 
f 472 477 467 
f 336 342 478 
f 478 473 336 
f 473 478 479 
f 479 474 473 
f 474 479 480 
f 480 475 474 
f 475 480 481 
f 481 476 475 
f 476 481 482 
f 482 477 476 
f 477 482 467 
f 342 348 483 
f 483 478 342 
f 478 483 484 
f 484 479 478 
f 479 484 485 
f 485 480 479 
f 480 485 486 
f 486 481 480 
f 481 486 487 
f 487 482 481 
f 482 487 467 
f 348 354 488 
f 488 483 348 
f 483 488 489 
f 489 484 483 
f 484 489 490 
f 490 485 484 
f 485 490 491 
f 491 486 485 
f 486 491 492 
f 492 487 486 
f 487 492 467 
f 354 360 493 
f 493 488 354 
f 488 493 494 
f 494 489 488 
f 489 494 495 
f 495 490 489 
f 490 495 496 
f 496 491 490 
f 491 496 497 
f 497 492 491 
f 492 497 467 
f 360 366 498 
f 498 493 360 
f 493 498 499 
f 499 494 493 
f 494 499 500 
f 500 495 494 
f 495 500 501 
f 501 496 495 
f 496 501 502 
f 502 497 496 
f 497 502 467 
f 366 372 503 
f 503 498 366 
f 498 503 504 
f 504 499 498 
f 499 504 505 
f 505 500 499 
f 500 505 506 
f 506 501 500 
f 501 506 507 
f 507 502 501 
f 502 507 467 
f 372 378 508 
f 508 503 372 
f 503 508 509 
f 509 504 503 
f 504 509 510 
f 510 505 504 
f 505 510 511 
f 511 506 505 
f 506 511 512 
f 512 507 506 
f 507 512 467 
f 378 384 513 
f 513 508 378 
f 508 513 514 
f 514 509 508 
f 509 514 515 
f 515 510 509 
f 510 515 516 
f 516 511 510 
f 511 516 517 
f 517 512 511 
f 512 517 467 
f 384 390 518 
f 518 513 384 
f 513 518 519 
f 519 514 513 
f 514 519 520 
f 520 515 514 
f 515 520 521 
f 521 516 515 
f 516 521 522 
f 522 517 516 
f 517 522 467 
f 390 396 523 
f 523 518 390 
f 518 523 524 
f 524 519 518 
f 519 524 525 
f 525 520 519 
f 520 525 526 
f 526 521 520 
f 521 526 527 
f 527 522 521 
f 522 527 467 
f 396 402 528 
f 528 523 396 
f 523 528 529 
f 529 524 523 
f 524 529 530 
f 530 525 524 
f 525 530 531 
f 531 526 525 
f 526 531 532 
f 532 527 526 
f 527 532 467 
f 402 408 533 
f 533 528 402 
f 528 533 534 
f 534 529 528 
f 529 534 535 
f 535 530 529 
f 530 535 536 
f 536 531 530 
f 531 536 537 
f 537 532 531 
f 532 537 467 
f 408 414 538 
f 538 533 408 
f 533 538 539 
f 539 534 533 
f 534 539 540 
f 540 535 534 
f 535 540 541 
f 541 536 535 
f 536 541 542 
f 542 537 536 
f 537 542 467 
f 414 420 543 
f 543 538 414 
f 538 543 544 
f 544 539 538 
f 539 544 545 
f 545 540 539 
f 540 545 546 
f 546 541 540 
f 541 546 547 
f 547 542 541 
f 542 547 467 
f 420 426 548 
f 548 543 420 
f 543 548 549 
f 549 544 543 
f 544 549 550 
f 550 545 544 
f 545 550 551 
f 551 546 545 
f 546 551 552 
f 552 547 546 
f 547 552 467 
f 426 432 553 
f 553 548 426 
f 548 553 554 
f 554 549 548 
f 549 554 555 
f 555 550 549 
f 550 555 556 
f 556 551 550 
f 551 556 557 
f 557 552 551 
f 552 557 467 
f 432 438 558 
f 558 553 432 
f 553 558 559 
f 559 554 553 
f 554 559 560 
f 560 555 554 
f 555 560 561 
f 561 556 555 
f 556 561 562 
f 562 557 556 
f 557 562 467 
f 438 444 563 
f 563 558 438 
f 558 563 564 
f 564 559 558 
f 559 564 565 
f 565 560 559 
f 560 565 566 
f 566 561 560 
f 561 566 567 
f 567 562 561 
f 562 567 467 
f 444 450 568 
f 568 563 444 
f 563 568 569 
f 569 564 563 
f 564 569 570 
f 570 565 564 
f 565 570 571 
f 571 566 565 
f 566 571 572 
f 572 567 566 
f 567 572 467 
f 450 456 573 
f 573 568 450 
f 568 573 574 
f 574 569 568 
f 569 574 575 
f 575 570 569 
f 570 575 576 
f 576 571 570 
f 571 576 577 
f 577 572 571 
f 572 577 467 
f 456 324 458 
f 458 573 456 
f 573 458 460 
f 460 574 573 
f 574 460 462 
f 462 575 574 
f 575 462 464 
f 464 576 575 
f 576 464 466 
f 466 577 576 
f 577 466 467 
f 578 579 580 
f 580 581 578 
f 581 580 582 
f 582 583 581 
f 583 582 584 
f 584 585 583 
f 585 584 586 
f 586 587 585 
f 587 586 588 
f 588 589 587 
f 589 588 590 
f 590 591 589 
f 579 592 593 
f 593 580 579 
f 580 593 594 
f 594 582 580 
f 582 594 595 
f 595 584 582 
f 584 595 596 
f 596 586 584 
f 586 596 597 
f 597 588 586 
f 588 597 598 
f 598 590 588 
f 592 599 600 
f 600 593 592 
f 593 600 601 
f 601 594 593 
f 594 601 602 
f 602 595 594 
f 595 602 603 
f 603 596 595 
f 596 603 604 
f 604 597 596 
f 597 604 605 
f 605 598 597 
f 599 606 607 
f 607 600 599 
f 600 607 608 
f 608 601 600 
f 601 608 609 
f 609 602 601 
f 602 609 610 
f 610 603 602 
f 603 610 611 
f 611 604 603 
f 604 611 612 
f 612 605 604 
f 606 613 614 
f 614 607 606 
f 607 614 615 
f 615 608 607 
f 608 615 616 
f 616 609 608 
f 609 616 617 
f 617 610 609 
f 610 617 618 
f 618 611 610 
f 611 618 619 
f 619 612 611 
f 613 620 621 
f 621 614 613 
f 614 621 622 
f 622 615 614 
f 615 622 623 
f 623 616 615 
f 616 623 624 
f 624 617 616 
f 617 624 625 
f 625 618 617 
f 618 625 626 
f 626 619 618 
f 620 627 628 
f 628 621 620 
f 621 628 629 
f 629 622 621 
f 622 629 630 
f 630 623 622 
f 623 630 631 
f 631 624 623 
f 624 631 632 
f 632 625 624 
f 625 632 633 
f 633 626 625 
f 627 634 635 
f 635 628 627 
f 628 635 636 
f 636 629 628 
f 629 636 637 
f 637 630 629 
f 630 637 638 
f 638 631 630 
f 631 638 639 
f 639 632 631 
f 632 639 640 
f 640 633 632 
f 634 641 642 
f 642 635 634 
f 635 642 643 
f 643 636 635 
f 636 643 644 
f 644 637 636 
f 637 644 645 
f 645 638 637 
f 638 645 646 
f 646 639 638 
f 639 646 647 
f 647 640 639 
f 641 648 649 
f 649 642 641 
f 642 649 650 
f 650 643 642 
f 643 650 651 
f 651 644 643 
f 644 651 652 
f 652 645 644 
f 645 652 653 
f 653 646 645 
f 646 653 654 
f 654 647 646 
f 648 655 656 
f 656 649 648 
f 649 656 657 
f 657 650 649 
f 650 657 658 
f 658 651 650 
f 651 658 659 
f 659 652 651 
f 652 659 660 
f 660 653 652 
f 653 660 661 
f 661 654 653 
f 655 578 581 
f 581 656 655 
f 656 581 583 
f 583 657 656 
f 657 583 585 
f 585 658 657 
f 658 585 587 
f 587 659 658 
f 659 587 589 
f 589 660 659 
f 660 589 591 
f 591 661 660 
f 591 590 662 
f 662 663 591 
f 663 662 664 
f 664 665 663 
f 665 664 666 
f 666 667 665 
f 667 666 668 
f 668 669 667 
f 669 668 670 
f 670 671 669 
f 671 670 672 
f 672 246 671 
f 590 598 673 
f 673 662 590 
f 662 673 674 
f 674 664 662 
f 664 674 675 
f 675 666 664 
f 666 675 676 
f 676 668 666 
f 668 676 677 
f 677 670 668 
f 670 677 678 
f 678 672 670 
f 598 605 679 
f 679 673 598 
f 673 679 680 
f 680 674 673 
f 674 680 681 
f 681 675 674 
f 675 681 682 
f 682 676 675 
f 676 682 683 
f 683 677 676 
f 677 683 684 
f 684 678 677 
f 605 612 685 
f 685 679 605 
f 679 685 686 
f 686 680 679 
f 680 686 687 
f 687 681 680 
f 681 687 688 
f 688 682 681 
f 682 688 689 
f 689 683 682 
f 683 689 690 
f 690 684 683 
f 612 619 691 
f 691 685 612 
f 685 691 692 
f 692 686 685 
f 686 692 693 
f 693 687 686 
f 687 693 694 
f 694 688 687 
f 688 694 695 
f 695 689 688 
f 689 695 696 
f 696 690 689 
f 619 626 697 
f 697 691 619 
f 691 697 698 
f 698 692 691 
f 692 698 699 
f 699 693 692 
f 693 699 700 
f 700 694 693 
f 694 700 701 
f 701 695 694 
f 695 701 702 
f 702 696 695 
f 626 633 703 
f 703 697 626 
f 697 703 704 
f 704 698 697 
f 698 704 705 
f 705 699 698 
f 699 705 706 
f 706 700 699 
f 700 706 707 
f 707 701 700 
f 701 707 708 
f 708 702 701 
f 633 640 709 
f 709 703 633 
f 703 709 710 
f 710 704 703 
f 704 710 711 
f 711 705 704 
f 705 711 712 
f 712 706 705 
f 706 712 713 
f 713 707 706 
f 707 713 714 
f 714 708 707 
f 640 647 715 
f 715 709 640 
f 709 715 716 
f 716 710 709 
f 710 716 717 
f 717 711 710 
f 711 717 718 
f 718 712 711 
f 712 718 719 
f 719 713 712 
f 713 719 720 
f 720 714 713 
f 647 654 721 
f 721 715 647 
f 715 721 722 
f 722 716 715 
f 716 722 723 
f 723 717 716 
f 717 723 724 
f 724 718 717 
f 718 724 725 
f 725 719 718 
f 719 725 726 
f 726 720 719 
f 654 661 727 
f 727 721 654 
f 721 727 728 
f 728 722 721 
f 722 728 729 
f 729 723 722 
f 723 729 730 
f 730 724 723 
f 724 730 731 
f 731 725 724 
f 725 731 732 
f 732 726 725 
f 661 591 663 
f 663 727 661 
f 727 663 665 
f 665 728 727 
f 728 665 667 
f 667 729 728 
f 729 667 669 
f 669 730 729 
f 730 669 671 
f 671 731 730 
f 731 671 246 
f 246 732 731 
f 733 734 735 
f 735 736 733 
f 736 735 737 
f 737 738 736 
f 738 737 739 
f 739 740 738 
f 740 739 741 
f 741 742 740 
f 742 741 743 
f 743 744 742 
f 744 743 745 
f 745 746 744 
f 734 747 748 
f 748 735 734 
f 735 748 749 
f 749 737 735 
f 737 749 750 
f 750 739 737 
f 739 750 751 
f 751 741 739 
f 741 751 752 
f 752 743 741 
f 743 752 753 
f 753 745 743 
f 747 754 755 
f 755 748 747 
f 748 755 756 
f 756 749 748 
f 749 756 757 
f 757 750 749 
f 750 757 758 
f 758 751 750 
f 751 758 759 
f 759 752 751 
f 752 759 760 
f 760 753 752 
f 754 761 762 
f 762 755 754 
f 755 762 763 
f 763 756 755 
f 756 763 764 
f 764 757 756 
f 757 764 765 
f 765 758 757 
f 758 765 766 
f 766 759 758 
f 759 766 767 
f 767 760 759 
f 761 768 769 
f 769 762 761 
f 762 769 770 
f 770 763 762 
f 763 770 771 
f 771 764 763 
f 764 771 772 
f 772 765 764 
f 765 772 773 
f 773 766 765 
f 766 773 774 
f 774 767 766 
f 768 775 776 
f 776 769 768 
f 769 776 777 
f 777 770 769 
f 770 777 778 
f 778 771 770 
f 771 778 779 
f 779 772 771 
f 772 779 780 
f 780 773 772 
f 773 780 781 
f 781 774 773 
f 775 782 783 
f 783 776 775 
f 776 783 784 
f 784 777 776 
f 777 784 785 
f 785 778 777 
f 778 785 786 
f 786 779 778 
f 779 786 787 
f 787 780 779 
f 780 787 788 
f 788 781 780 
f 782 789 790 
f 790 783 782 
f 783 790 791 
f 791 784 783 
f 784 791 792 
f 792 785 784 
f 785 792 793 
f 793 786 785 
f 786 793 794 
f 794 787 786 
f 787 794 795 
f 795 788 787 
f 789 796 797 
f 797 790 789 
f 790 797 798 
f 798 791 790 
f 791 798 799 
f 799 792 791 
f 792 799 800 
f 800 793 792 
f 793 800 801 
f 801 794 793 
f 794 801 802 
f 802 795 794 
f 796 803 804 
f 804 797 796 
f 797 804 805 
f 805 798 797 
f 798 805 806 
f 806 799 798 
f 799 806 807 
f 807 800 799 
f 800 807 808 
f 808 801 800 
f 801 808 809 
f 809 802 801 
f 803 810 811 
f 811 804 803 
f 804 811 812 
f 812 805 804 
f 805 812 813 
f 813 806 805 
f 806 813 814 
f 814 807 806 
f 807 814 815 
f 815 808 807 
f 808 815 816 
f 816 809 808 
f 810 733 736 
f 736 811 810 
f 811 736 738 
f 738 812 811 
f 812 738 740 
f 740 813 812 
f 813 740 742 
f 742 814 813 
f 814 742 744 
f 744 815 814 
f 815 744 746 
f 746 816 815 
f 746 745 817 
f 817 818 746 
f 818 817 819 
f 819 820 818 
f 820 819 821 
f 821 822 820 
f 822 821 823 
f 823 824 822 
f 824 823 825 
f 825 826 824 
f 826 825 827 
f 827 828 826 
f 745 753 829 
f 829 817 745 
f 817 829 830 
f 830 819 817 
f 819 830 831 
f 831 821 819 
f 821 831 832 
f 832 823 821 
f 823 832 833 
f 833 825 823 
f 825 833 834 
f 834 827 825 
f 753 760 835 
f 835 829 753 
f 829 835 836 
f 836 830 829 
f 830 836 837 
f 837 831 830 
f 831 837 838 
f 838 832 831 
f 832 838 839 
f 839 833 832 
f 833 839 840 
f 840 834 833 
f 760 767 841 
f 841 835 760 
f 835 841 842 
f 842 836 835 
f 836 842 843 
f 843 837 836 
f 837 843 844 
f 844 838 837 
f 838 844 845 
f 845 839 838 
f 839 845 846 
f 846 840 839 
f 767 774 847 
f 847 841 767 
f 841 847 848 
f 848 842 841 
f 842 848 849 
f 849 843 842 
f 843 849 850 
f 850 844 843 
f 844 850 851 
f 851 845 844 
f 845 851 852 
f 852 846 845 
f 774 781 853 
f 853 847 774 
f 847 853 854 
f 854 848 847 
f 848 854 855 
f 855 849 848 
f 849 855 856 
f 856 850 849 
f 850 856 857 
f 857 851 850 
f 851 857 858 
f 858 852 851 
f 781 788 859 
f 859 853 781 
f 853 859 860 
f 860 854 853 
f 854 860 861 
f 861 855 854 
f 855 861 862 
f 862 856 855 
f 856 862 863 
f 863 857 856 
f 857 863 864 
f 864 858 857 
f 788 795 865 
f 865 859 788 
f 859 865 866 
f 866 860 859 
f 860 866 867 
f 867 861 860 
f 861 867 868 
f 868 862 861 
f 862 868 869 
f 869 863 862 
f 863 869 870 
f 870 864 863 
f 795 802 871 
f 871 865 795 
f 865 871 872 
f 872 866 865 
f 866 872 873 
f 873 867 866 
f 867 873 874 
f 874 868 867 
f 868 874 875 
f 875 869 868 
f 869 875 876 
f 876 870 869 
f 802 809 877 
f 877 871 802 
f 871 877 878 
f 878 872 871 
f 872 878 879 
f 879 873 872 
f 873 879 880 
f 880 874 873 
f 874 880 881 
f 881 875 874 
f 875 881 882 
f 882 876 875 
f 809 816 883 
f 883 877 809 
f 877 883 884 
f 884 878 877 
f 878 884 885 
f 885 879 878 
f 879 885 886 
f 886 880 879 
f 880 886 887 
f 887 881 880 
f 881 887 888 
f 888 882 881 
f 816 746 818 
f 818 883 816 
f 883 818 820 
f 820 884 883 
f 884 820 822 
f 822 885 884 
f 885 822 824 
f 824 886 885 
f 886 824 826 
f 826 887 886 
f 887 826 828 
f 828 888 887 
# 1704 faces

